…
#### 1.2.2 Hourly patterns

There are two data frames that have the data we need, which are hourly
steps and calories. Lets look into these data.

``` r
h_data <- h_total %>% 
  mutate(time=hour(datetime)) %>% 
  group_by(time) %>% 
  arrange(time) %>% 
  summarize(hourly_step = mean(steptotal),hourly_calories = mean(calories))
head(h_data,n=24)
```

    ## # A tibble: 24 × 3
    ##     time hourly_step hourly_calories
    ##    <int>       <dbl>           <dbl>
    ##  1     0       42.2             71.8
    ##  2     1       23.1             70.2
    ##  3     2       17.1             69.2
    ##  4     3        6.43            67.5
    ##  5     4       12.7             68.3
    ##  6     5       43.9             81.7
    ##  7     6      179.              87.0
    ##  8     7      306.              94.5
    ##  9     8      428.             103. 
    ## 10     9      433.             106. 
    ## # … with 14 more rows
…
